-20 0.0435274
-19.8 0.0931631
-19.6 0.159018
-19.4 0.238467
-19.2 0.328343
-19 0.425061
-18.8 0.524768
-18.6 0.623487
-18.4 0.717283
-18.2 0.802416
-18 0.875494
-17.8 0.933601
-17.6 0.974422
-17.4 0.99633
-17.2 0.99845
-17 0.980699
-16.8 0.943784
-16.6 0.889176
-16.4 0.819053
-16.2 0.736211
-16 0.643952
-15.8 0.545953
-15.6 0.446123
-15.4 0.348441
-15.2 0.256801
-15 0.174856
-14.8 0.105874
-14.6 0.0526044
-14.4 0.0171711
-14.2 0.000986671
-14 0.00469633
-13.8 0.0281522
-13.6 0.0704191
-13.4 0.129812
-13.2 0.203963
-13 0.289917
-12.8 0.384245
-12.6 0.483189
-12.4 0.582802
-12.2 0.679115
-12 0.768287
-11.8 0.846763
-11.6 0.911414
-11.4 0.959664
-11.2 0.989589
-11 0.999995
-10.8 0.990468
-10.6 0.961388
-10.4 0.913913
-10.2 0.849937
-10 0.77201
-9.8 0.683239
-9.6 0.587163
-9.4 0.487612
-9.2 0.388555
-9 0.293941
-8.8 0.207541
-8.6 0.132801
-8.4 0.0727005
-8.2 0.0296347
-8 0.00532086
-7.8 0.000728332
-7.6 0.0160402
-7.4 0.050646
-7.2 0.103166
-7 0.171507
-6.8 0.252943
-6.6 0.344229
-6.4 0.441725
-6.2 0.541545
-6 0.639708
-5.8 0.732301
-5.6 0.815633
-5.4 0.886382
-5.2 0.941727
-5 0.979462
-4.8 0.998082
-4.6 0.996845
-4.4 0.975801
-4.2 0.935788
-4 0.878401
-3.8 0.805929
-3.6 0.72126
-3.4 0.62777
-3.2 0.529187
-3 0.42944
-2.8 0.332506
-2.6 0.242249
-2.4 0.162268
-2.2 0.0957517
-2 0.0453512
-1.8 0.0130762
-1.6 0.000213194
-1.4 0.00727516
-1.2 0.0339805
-1 0.0792646
-0.8 0.141322
-0.6 0.217679
-0.4 0.305291
-0.2 0.400665
2.98023e-07 0.5
0.2 0.599335
0.4 0.694709
0.6 0.782321
0.8 0.858678
1 0.920736
1.2 0.96602
1.4 0.992725
1.6 0.999787
1.8 0.986924
2 0.954649
2.2 0.904248
2.4 0.837731
2.6 0.757751
2.8 0.667494
3 0.57056
3.2 0.470813
3.4 0.372229
3.6 0.27874
3.8 0.194071
4 0.121599
4.2 0.064212
4.4 0.0241989
4.6 0.00315448
4.8 0.00191771
5 0.0205379
5.2 0.0582728
5.4 0.113618
5.6 0.184367
5.8 0.267699
6 0.360292
6.2 0.458455
6.4 0.558275
6.6 0.655771
6.8 0.747057
7 0.828493
7.2 0.896834
7.4 0.949354
7.6 0.98396
7.8 0.999272
8 0.994679
8.2 0.970365
8.4 0.927299
8.6 0.867198
8.8 0.792458
9 0.706059
9.2 0.611445
9.4 0.512387
9.6 0.412836
9.8 0.31676
10 0.227989
10.2 0.150062
10.4 0.0860866
10.6 0.0386122
10.8 0.00953184
11 4.89775e-06
11.2 0.0104112
11.4 0.0403358
11.6 0.0885858
11.8 0.153238
12 0.231714
12.2 0.320886
12.4 0.417198
12.6 0.516812
12.8 0.615755
13 0.710084
13.2 0.796037
13.4 0.870188
13.6 0.929581
13.8 0.971848
14 0.995304
14.2 0.999013
14.4 0.982829
14.6 0.947395
14.8 0.894126
15 0.825144
15.2 0.743199
15.4 0.651559
15.6 0.553877
15.8 0.454046
16 0.356048
16.2 0.263789
16.4 0.180946
16.6 0.110824
16.8 0.0562164
17 0.0193012
17.2 0.00154995
17.4 0.00367034
17.6 0.0255778
17.8 0.0663991
18 0.124507
18.2 0.197584
18.4 0.282717
18.6 0.376513
18.8 0.475232
19 0.574939
19.2 0.671658
19.4 0.761533
19.6 0.840982
19.8 0.906837
