-20 0.0441462
-19.8 0.0320218
-19.6 0.0722832
-19.4 0.0450731
-19.2 0.100815
-19 0.0457407
-18.8 0.147936
-18.6 0.033393
-18.4 0.271246
-18.2 0.011516
-18 0.656923
-17.8 0.000612217
-17.6 0.990067
-17.4 6.90506e-05
-17.2 0.999973
-17 6.46219e-05
-16.8 0.999978
-16.6 6.46145e-05
-16.4 0.999978
-16.2 6.46145e-05
-16 0.999978
-15.8 6.46145e-05
-15.6 0.999978
-15.4 6.46145e-05
-15.2 0.999978
-15 6.46145e-05
-14.8 0.999978
-14.6 6.46145e-05
-14.4 0.999978
-14.2 6.46145e-05
-14 0.999978
-13.8 6.46145e-05
-13.6 0.999978
-13.4 6.46145e-05
-13.2 0.999978
-13 6.46145e-05
-12.8 0.999978
-12.6 6.46145e-05
-12.4 0.999978
-12.2 6.46145e-05
-12 0.999978
-11.8 6.46145e-05
-11.6 0.999978
-11.4 6.46145e-05
-11.2 0.999978
-11 6.46145e-05
-10.8 0.999978
-10.6 6.46145e-05
-10.4 0.999978
-10.2 6.46145e-05
-10 0.999978
-9.8 6.46145e-05
-9.6 0.999978
-9.4 6.46145e-05
-9.2 0.999978
-9 6.46145e-05
-8.8 0.999978
-8.6 6.46145e-05
-8.4 0.999978
-8.2 6.46145e-05
-8 0.999978
-7.8 6.46145e-05
-7.6 0.999978
-7.4 6.46145e-05
-7.2 0.999978
-7 6.46145e-05
-6.8 0.999978
-6.6 6.46145e-05
-6.4 0.999978
-6.2 6.46145e-05
-6 0.999978
-5.8 6.46145e-05
-5.6 0.999978
-5.4 6.46145e-05
-5.2 0.999978
-5 6.46145e-05
-4.8 0.999978
-4.6 6.46145e-05
-4.4 0.999978
-4.2 6.46145e-05
-4 0.999978
-3.8 6.46145e-05
-3.6 0.999978
-3.4 6.46145e-05
-3.2 0.999978
-3 6.46145e-05
-2.8 0.999978
-2.6 6.46145e-05
-2.4 0.999978
-2.2 6.46145e-05
-2 0.999978
-1.8 6.46145e-05
-1.6 0.999978
-1.4 6.46145e-05
-1.2 0.999978
-1 6.46145e-05
-0.8 0.999978
-0.6 6.46145e-05
-0.4 0.999978
-0.2 6.46145e-05
2.98023e-07 0.999978
0.2 6.46145e-05
0.4 0.999978
0.6 6.46145e-05
0.8 0.999978
1 6.46145e-05
1.2 0.999978
1.4 6.46145e-05
1.6 0.999978
1.8 6.46145e-05
2 0.999978
2.2 6.46145e-05
2.4 0.999978
2.6 6.46145e-05
2.8 0.999978
3 6.46145e-05
3.2 0.999978
3.4 6.46145e-05
3.6 0.999978
3.8 6.46145e-05
4 0.999978
4.2 6.46145e-05
4.4 0.999978
4.6 6.46145e-05
4.8 0.999978
5 6.46145e-05
5.2 0.999978
5.4 6.46145e-05
5.6 0.999978
5.8 6.46145e-05
6 0.999978
6.2 6.46145e-05
6.4 0.999978
6.6 6.46145e-05
6.8 0.999978
7 6.46145e-05
7.2 0.999978
7.4 6.46145e-05
7.6 0.999978
7.8 6.46145e-05
8 0.999978
8.2 6.46145e-05
8.4 0.999978
8.6 6.46145e-05
8.8 0.999978
9 6.46145e-05
9.2 0.999978
9.4 6.46145e-05
9.6 0.999978
9.8 6.46145e-05
10 0.999978
10.2 6.46145e-05
10.4 0.999978
10.6 6.46145e-05
10.8 0.999978
11 6.46145e-05
11.2 0.999978
11.4 6.46145e-05
11.6 0.999978
11.8 6.46145e-05
12 0.999978
12.2 6.46145e-05
12.4 0.999978
12.6 6.46145e-05
12.8 0.999978
13 6.46145e-05
13.2 0.999978
13.4 6.46145e-05
13.6 0.999978
13.8 6.46145e-05
14 0.999978
14.2 6.46145e-05
14.4 0.999978
14.6 6.46145e-05
14.8 0.999978
15 6.46145e-05
15.2 0.999978
15.4 6.46145e-05
15.6 0.999978
15.8 6.46145e-05
16 0.999978
16.2 6.46145e-05
16.4 0.999978
16.6 6.46145e-05
16.8 0.999978
17 6.46145e-05
17.2 0.999978
17.4 6.46145e-05
17.6 0.999978
17.8 6.46145e-05
18 0.999978
18.2 6.46145e-05
18.4 0.999978
18.6 6.46145e-05
18.8 0.999978
19 6.46145e-05
19.2 0.999978
19.4 6.46145e-05
19.6 0.999978
19.8 6.46145e-05
